{
  "__metadata": {
    "api": "https://info-beamer.com/api/v1/device/3876/on-device/17925-23e52d2da650484222b576ffcda9c957",
    "device_id": 3876,
    "instance_id": 9432,
    "package_id": 6848,
    "scratch": "03bd7db3a1846473",
    "secrets": {
      "account": "614a9c1a2552d96082306fd89bd73073",
      "setup": "4b0004511871f5dab8c86a915d957e66"
    },
    "setup_id": 7778
  },
  "auto_align": true,
  "feed_url": "http://feeds.feedburner.com/DLR_raumfahrt",
  "font_size": 33,
  "image_h": 180,
  "image_m": 20,
  "image_w": 320,
  "limit": 3,
  "offset": 0
}
